de/marvin/symphony/newsfeed/NewsModule.class
de/marvin/symphony/newsfeed/NewsFeedManager.class
de/marvin/symphony/process/ExecutorManager.class
de/marvin/symphony/library/LibrarySettingsManager.class
de/marvin/symphony/newsfeed/NewsFeed.class
de/marvin/symphony/command/SymphonyCommand.class
de/marvin/symphony/process/ExecutorListener.class
de/marvin/symphony/newsfeed/StatisticManager.class
de/marvin/symphony/library/Library.class
de/marvin/symphony/command/CommandController.class
de/marvin/symphony/command/Command.class
de/marvin/symphony/newsfeed/SourceManager.class
de/marvin/symphony/command/HelpCommand.class
de/marvin/symphony/newsfeed/Source.class
de/marvin/symphony/manager/StatisticManager.class
de/marvin/symphony/process/SymphonyExecutor.class
de/marvin/symphony/library/LibraryModule.class
de/marvin/symphony/library/LibrarySettings.class
de/marvin/symphony/preperation/AnalysisModule.class
de/marvin/symphony/library/LibraryManager.class
